,Oral,Written,Race,Combine,Class,Position_Captain,Position_Lieutenant,Race-Class
0,89.52,95,1,92.808,1,1,0,11
1,80.0,95,1,89.0,1,1,0,11
2,82.38,87,1,85.152,1,1,0,11
3,88.57,76,1,81.028,1,1,0,11
4,76.19,84,1,80.876,1,1,0,11
5,76.19,82,0,79.676,1,1,0,01
6,76.19,82,1,79.676,1,1,0,11
7,70.0,84,0,78.4,1,1,0,01
8,73.81,81,1,78.124,1,1,0,11
9,84.29,72,1,76.916,1,1,0,11
10,87.62,69,1,76.44800000000002,1,1,0,11
11,80.0,74,1,76.4,1,1,0,11
12,79.05,74,0,76.02,1,1,0,01
13,73.81,77,1,75.72399999999998,1,1,0,11
14,76.67,74,1,75.068,1,1,0,11
15,82.38,70,0,74.952,1,1,0,01
16,73.33,74,1,73.732,1,1,0,11
17,70.0,76,1,73.6,1,1,0,11
18,68.57,74,0,71.828,1,1,0,01
19,82.38,64,1,71.352,1,1,0,11
20,56.67,81,1,71.268,1,1,0,11
21,70.95,70,0,70.38,1,1,0,01
22,62.38,75,1,69.952,0,1,0,10
23,78.57,64,1,69.828,0,1,0,10
24,71.43,68,1,69.372,0,1,0,10
25,71.43,68,1,69.372,0,1,0,10
26,59.05,76,1,69.22,0,1,0,10
27,60.48,75,0,69.192,0,1,0,00
28,57.14,75,1,67.85600000000001,0,1,0,10
29,52.38,77,0,67.152,0,1,0,00
30,67.14,65,0,65.85600000000001,0,1,0,00
31,55.24,68,1,62.896,0,1,0,10
32,58.57,65,0,62.428,0,1,0,00
33,48.57,69,1,60.828,0,1,0,10
34,67.62,56,0,60.648,0,1,0,00
35,57.14,61,0,59.456,0,1,0,00
36,70.48,50,0,58.192,0,1,0,00
37,42.86,67,0,57.344,0,1,0,00
38,53.81,58,1,56.324,0,1,0,10
39,60.0,53,0,55.8,0,1,0,00
40,54.76,49,0,51.304,0,1,0,00
41,88.75,91,1,90.1,1,0,1,11
42,87.5,87,1,87.2,1,0,1,11
43,77.5,91,1,85.6,1,0,1,11
44,85.0,84,1,84.4,1,0,1,11
45,80.0,87,1,84.2,1,0,1,11
46,73.75,91,1,84.1,1,0,1,11
47,80.83,84,1,82.73200000000001,1,0,1,11
48,73.33,89,1,82.73200000000001,1,0,1,11
49,63.75,95,1,82.5,1,0,1,11
50,68.33,91,1,81.932,1,0,1,11
51,69.58,86,1,79.432,1,0,1,11
52,73.75,81,1,78.1,1,0,1,11
53,58.75,89,1,76.9,1,0,1,11
54,77.5,76,0,76.6,1,0,1,01
55,61.25,86,0,76.1,1,0,1,01
56,80.42,73,0,75.968,1,0,1,01
57,74.17,77,1,75.868,1,0,1,11
58,63.33,83,1,75.132,1,0,1,11
59,87.5,66,1,74.6,1,0,1,11
60,65.83,80,0,74.332,1,0,1,01
61,78.33,70,1,73.332,1,0,1,11
62,70.83,74,0,72.732,1,0,1,01
63,66.67,76,1,72.268,1,0,1,11
64,92.08,59,0,72.232,1,0,1,01
65,72.5,72,1,72.2,1,0,1,11
66,73.33,71,1,71.932,1,0,1,11
67,55.0,82,0,71.2,1,0,1,01
68,69.17,72,0,70.868,1,0,1,01
69,65.83,74,1,70.732,1,0,1,11
70,58.33,79,1,70.732,1,0,1,11
71,53.75,82,0,70.7,1,0,1,01
72,77.5,66,1,70.6,1,0,1,11
73,73.75,68,1,70.3,1,0,1,11
74,71.67,69,1,70.068,1,0,1,11
75,64.58,73,1,69.632,0,0,1,10
76,70.83,68,0,69.132,0,0,1,00
77,73.75,66,1,69.1,0,0,1,10
78,58.75,76,1,69.1,0,0,1,10
79,51.25,80,1,68.5,0,0,1,10
80,62.5,72,0,68.2,0,0,1,00
81,51.67,79,1,68.068,0,0,1,10
82,70.83,65,0,67.332,0,0,1,00
83,64.58,69,1,67.232,0,0,1,10
84,79.17,59,1,67.068,0,0,1,10
85,56.25,73,0,66.3,0,0,1,00
86,55.0,73,1,65.8,0,0,1,10
87,66.25,65,0,65.5,0,0,1,00
88,50.42,75,1,65.168,0,0,1,10
89,57.5,70,0,65.0,0,0,1,00
90,69.17,60,0,63.668,0,0,1,00
91,51.67,71,0,63.268,0,0,1,00
92,71.67,57,1,62.868,0,0,1,10
93,50.42,71,0,62.768,0,0,1,00
94,56.25,66,1,62.1,0,0,1,10
95,56.67,64,0,61.06800000000001,0,0,1,00
96,56.25,64,0,60.9,0,0,1,00
97,42.5,73,0,60.8,0,0,1,00
98,51.25,67,0,60.7,0,0,1,00
99,55.0,64,0,60.4,0,0,1,00
100,51.25,66,0,60.1,0,0,1,00
101,49.58,67,1,60.032,0,0,1,10
102,60.0,60,1,60.0,0,0,1,10
103,46.25,68,0,59.3,0,0,1,00
104,60.83,58,0,59.132,0,0,1,00
105,57.92,58,1,57.968,0,0,1,10
106,51.25,62,1,57.7,0,0,1,10
107,44.58,66,1,57.432,0,0,1,10
108,44.17,66,0,57.268,0,0,1,00
109,45.42,65,1,57.168,0,0,1,10
110,55.83,58,0,57.132,0,0,1,00
111,54.58,58,1,56.632,0,0,1,10
112,58.75,55,0,56.5,0,0,1,00
113,40.83,64,0,54.732,0,0,1,00
114,52.08,56,0,54.432,0,0,1,00
115,48.33,58,0,54.132,0,0,1,00
116,52.92,49,0,50.56800000000001,0,0,1,00
117,45.83,46,0,45.932,0,0,1,00
