,Position,Oral,Written,Race,Combine,Class,Race-Class
0,Captain,89.52,95,1,92.808,1,11
1,Captain,80.0,95,1,89.0,1,11
2,Captain,82.38,87,1,85.152,1,11
3,Captain,88.57,76,1,81.028,1,11
4,Captain,76.19,84,1,80.876,1,11
5,Captain,76.19,82,0,79.676,1,01
6,Captain,76.19,82,1,79.676,1,11
7,Captain,70.0,84,0,78.4,1,01
8,Captain,73.81,81,1,78.124,1,11
9,Captain,84.29,72,1,76.916,1,11
10,Captain,87.62,69,1,76.44800000000002,1,11
11,Captain,80.0,74,1,76.4,1,11
12,Captain,79.05,74,0,76.02,1,01
13,Captain,73.81,77,1,75.72399999999998,1,11
14,Captain,76.67,74,1,75.068,1,11
15,Captain,82.38,70,0,74.952,1,01
16,Captain,73.33,74,1,73.732,1,11
17,Captain,70.0,76,1,73.6,1,11
18,Captain,68.57,74,0,71.828,1,01
19,Captain,82.38,64,1,71.352,1,11
20,Captain,56.67,81,1,71.268,1,11
21,Captain,70.95,70,0,70.38,1,01
22,Captain,62.38,75,1,69.952,0,10
23,Captain,78.57,64,1,69.828,0,10
24,Captain,71.43,68,1,69.372,0,10
25,Captain,71.43,68,1,69.372,0,10
26,Captain,59.05,76,1,69.22,0,10
27,Captain,60.48,75,0,69.192,0,00
28,Captain,57.14,75,1,67.85600000000001,0,10
29,Captain,52.38,77,0,67.152,0,00
30,Captain,67.14,65,0,65.85600000000001,0,00
31,Captain,55.24,68,1,62.896,0,10
32,Captain,58.57,65,0,62.428,0,00
33,Captain,48.57,69,1,60.828,0,10
34,Captain,67.62,56,0,60.648,0,00
35,Captain,57.14,61,0,59.456,0,00
36,Captain,70.48,50,0,58.192,0,00
37,Captain,42.86,67,0,57.344,0,00
38,Captain,53.81,58,1,56.324,0,10
39,Captain,60.0,53,0,55.8,0,00
40,Captain,54.76,49,0,51.304,0,00
41,Lieutenant,88.75,91,1,90.1,1,11
42,Lieutenant,87.5,87,1,87.2,1,11
43,Lieutenant,77.5,91,1,85.6,1,11
44,Lieutenant,85.0,84,1,84.4,1,11
45,Lieutenant,80.0,87,1,84.2,1,11
46,Lieutenant,73.75,91,1,84.1,1,11
47,Lieutenant,80.83,84,1,82.73200000000001,1,11
48,Lieutenant,73.33,89,1,82.73200000000001,1,11
49,Lieutenant,63.75,95,1,82.5,1,11
50,Lieutenant,68.33,91,1,81.932,1,11
51,Lieutenant,69.58,86,1,79.432,1,11
52,Lieutenant,73.75,81,1,78.1,1,11
53,Lieutenant,58.75,89,1,76.9,1,11
54,Lieutenant,77.5,76,0,76.6,1,01
55,Lieutenant,61.25,86,0,76.1,1,01
56,Lieutenant,80.42,73,0,75.968,1,01
57,Lieutenant,74.17,77,1,75.868,1,11
58,Lieutenant,63.33,83,1,75.132,1,11
59,Lieutenant,87.5,66,1,74.6,1,11
60,Lieutenant,65.83,80,0,74.332,1,01
61,Lieutenant,78.33,70,1,73.332,1,11
62,Lieutenant,70.83,74,0,72.732,1,01
63,Lieutenant,66.67,76,1,72.268,1,11
64,Lieutenant,92.08,59,0,72.232,1,01
65,Lieutenant,72.5,72,1,72.2,1,11
66,Lieutenant,73.33,71,1,71.932,1,11
67,Lieutenant,55.0,82,0,71.2,1,01
68,Lieutenant,69.17,72,0,70.868,1,01
69,Lieutenant,65.83,74,1,70.732,1,11
70,Lieutenant,58.33,79,1,70.732,1,11
71,Lieutenant,53.75,82,0,70.7,1,01
72,Lieutenant,77.5,66,1,70.6,1,11
73,Lieutenant,73.75,68,1,70.3,1,11
74,Lieutenant,71.67,69,1,70.068,1,11
75,Lieutenant,64.58,73,1,69.632,0,10
76,Lieutenant,70.83,68,0,69.132,0,00
77,Lieutenant,73.75,66,1,69.1,0,10
78,Lieutenant,58.75,76,1,69.1,0,10
79,Lieutenant,51.25,80,1,68.5,0,10
80,Lieutenant,62.5,72,0,68.2,0,00
81,Lieutenant,51.67,79,1,68.068,0,10
82,Lieutenant,70.83,65,0,67.332,0,00
83,Lieutenant,64.58,69,1,67.232,0,10
84,Lieutenant,79.17,59,1,67.068,0,10
85,Lieutenant,56.25,73,0,66.3,0,00
86,Lieutenant,55.0,73,1,65.8,0,10
87,Lieutenant,66.25,65,0,65.5,0,00
88,Lieutenant,50.42,75,1,65.168,0,10
89,Lieutenant,57.5,70,0,65.0,0,00
90,Lieutenant,69.17,60,0,63.668,0,00
91,Lieutenant,51.67,71,0,63.268,0,00
92,Lieutenant,71.67,57,1,62.868,0,10
93,Lieutenant,50.42,71,0,62.768,0,00
94,Lieutenant,56.25,66,1,62.1,0,10
95,Lieutenant,56.67,64,0,61.06800000000001,0,00
96,Lieutenant,56.25,64,0,60.9,0,00
97,Lieutenant,42.5,73,0,60.8,0,00
98,Lieutenant,51.25,67,0,60.7,0,00
99,Lieutenant,55.0,64,0,60.4,0,00
100,Lieutenant,51.25,66,0,60.1,0,00
101,Lieutenant,49.58,67,1,60.032,0,10
102,Lieutenant,60.0,60,1,60.0,0,10
103,Lieutenant,46.25,68,0,59.3,0,00
104,Lieutenant,60.83,58,0,59.132,0,00
105,Lieutenant,57.92,58,1,57.968,0,10
106,Lieutenant,51.25,62,1,57.7,0,10
107,Lieutenant,44.58,66,1,57.432,0,10
108,Lieutenant,44.17,66,0,57.268,0,00
109,Lieutenant,45.42,65,1,57.168,0,10
110,Lieutenant,55.83,58,0,57.132,0,00
111,Lieutenant,54.58,58,1,56.632,0,10
112,Lieutenant,58.75,55,0,56.5,0,00
113,Lieutenant,40.83,64,0,54.732,0,00
114,Lieutenant,52.08,56,0,54.432,0,00
115,Lieutenant,48.33,58,0,54.132,0,00
116,Lieutenant,52.92,49,0,50.56800000000001,0,00
117,Lieutenant,45.83,46,0,45.932,0,00
